<svg width="83" height="93" viewBox="0 0 83 93" fill="none" xmlns="http://www.w3.org/2000/svg">
<path d="M7.63637 1H71.0303C74.344 1 77.0303 3.68629 77.0303 7V86C77.0303 89.3137 74.344 92 71.0303 92H7.63637V1Z" stroke="#4A5568" stroke-width="2"/>
<path d="M78.0303 7H78.7879C80.4447 7 81.7879 8.34315 81.7879 10V15.2727C81.7879 16.9296 80.4447 18.2727 78.7879 18.2727H78.0303" stroke="#4A5568" stroke-width="2"/>
<path d="M81.7879 18.2727V23.7273C81.7879 25.3841 80.4447 26.7273 78.7879 26.7273H78.0303" stroke="#4A5568" stroke-width="2" stroke-linecap="round" stroke-linejoin="round"/>
<path d="M81.7879 26.7273V32.1818C81.7879 33.8387 80.4447 35.1818 78.7879 35.1818H78.0303" stroke="#4A5568" stroke-width="2" stroke-linecap="round" stroke-linejoin="round"/>
<path d="M81.7879 35.1818V40.6364C81.7879 42.2932 80.4447 43.6364 78.7879 43.6364H78.0303" stroke="#4A5568" stroke-width="2" stroke-linecap="round" stroke-linejoin="round"/>
<path d="M81.7879 43.6364V49.0909C81.7879 50.7478 80.4447 52.0909 78.7879 52.0909H78.0303" stroke="#4A5568" stroke-width="2" stroke-linecap="round" stroke-linejoin="round"/>
<path d="M81.7879 52.0909V57.5455C81.7879 59.2023 80.4447 60.5455 78.7879 60.5455H78.0303" stroke="#4A5568" stroke-width="2" stroke-linecap="round" stroke-linejoin="round"/>
<path d="M81.7879 60.5455V66C81.7879 67.6569 80.4447 69 78.7879 69H78.0303" stroke="#4A5568" stroke-width="2" stroke-linecap="round" stroke-linejoin="round"/>
<path d="M81.7879 69V74.4545C81.7879 76.1114 80.4447 77.4545 78.7879 77.4545H78.0303" stroke="#4A5568" stroke-width="2" stroke-linecap="round" stroke-linejoin="round"/>
<path d="M81.7879 77.4545V82.9091C81.7879 84.5659 80.4447 85.9091 78.7879 85.9091H78.0303" stroke="#4A5568" stroke-width="2" stroke-linecap="round" stroke-linejoin="round"/>
<path d="M54.5455 16.9091H25.7273C22.9658 16.9091 20.7273 19.1477 20.7273 21.9091V40.0909C20.7273 42.8523 22.9658 45.0909 25.7273 45.0909H54.5455M62.0606 16.9091H62.697C65.4584 16.9091 67.697 19.1477 67.697 21.9091V40.0909C67.697 42.8523 65.4584 45.0909 62.697 45.0909H62.0606" stroke="#4A5568" stroke-width="2"/>
<path d="M55 0V93M61 0V93" stroke="#4A5568" stroke-width="2"/>
<path d="M13.2727 0V93" stroke="#4A5568" stroke-width="2"/>
<path fill-rule="evenodd" clip-rule="evenodd" d="M34.8182 28.5405C34.8182 25.7726 36.9338 23.4848 39.5809 23.4848C41.3885 23.4848 42.9284 24.5545 43.7424 26.0902C44.5565 24.5545 46.0964 23.4848 47.904 23.4848C50.5511 23.4848 52.6667 25.7726 52.6667 28.5405C52.6667 28.5543 52.666 28.5681 52.6648 28.5818L52.6576 28.6602C52.6533 28.7076 52.6475 28.7712 52.6418 28.8362C52.6361 28.9013 52.6304 28.967 52.6262 29.0188C52.6239 29.0466 52.6226 29.0652 52.6217 29.0766C52.6206 29.0919 52.6204 29.094 52.6204 29.0871C52.6204 29.101 52.6198 29.115 52.6185 29.1288C52.514 30.2484 51.878 31.3885 51.0528 32.4394C50.2202 33.4998 49.1546 34.52 48.1135 35.4044C47.0705 36.2903 46.041 37.0494 45.2731 37.5864C44.8888 37.8552 44.5692 38.069 44.3451 38.2159C44.2331 38.2894 44.1448 38.3462 44.0843 38.3848C44.054 38.4042 44.0307 38.4189 44.0147 38.429L43.9964 38.4405L43.9915 38.4436L43.9902 38.4444L43.9898 38.4447C43.9896 38.4447 43.9895 38.4448 43.7424 38.0598C43.4954 38.4448 43.4953 38.4447 43.4951 38.4447L43.4934 38.4436L43.4885 38.4405L43.4702 38.429C43.4542 38.4189 43.4309 38.4042 43.4006 38.3848C43.34 38.3462 43.2518 38.2894 43.1398 38.2159C42.9157 38.069 42.5961 37.8552 42.2118 37.5864C41.4439 37.0494 40.4144 36.2903 39.3714 35.4044C38.3303 34.52 37.2646 33.4998 36.432 32.4395C35.6069 31.3885 34.9709 30.2484 34.8663 29.1288L34.866 29.1249L34.8198 28.5784C34.8187 28.5658 34.8182 28.5532 34.8182 28.5405ZM43.7424 38.0598L43.4951 38.4447C43.6461 38.5386 43.8388 38.5386 43.9898 38.4447L43.7424 38.0598ZM43.7424 37.5166C43.7704 37.4984 43.8005 37.4788 43.8326 37.4577C44.05 37.3151 44.3619 37.1065 44.7377 36.8437C45.4899 36.3176 46.4949 35.5764 47.5095 34.7145C48.5261 33.851 49.5412 32.8756 50.3213 31.8822C51.1061 30.8825 51.6138 29.9135 51.6968 29.0539C51.7004 28.9852 51.7119 28.855 51.7202 28.7611L51.7205 28.7573C51.7263 28.6913 51.7321 28.6268 51.7365 28.5789L51.7418 28.5204C51.7317 26.1968 49.9675 24.3958 47.904 24.3958C46.1602 24.3958 44.6554 25.6787 44.1904 27.4692C44.1381 27.6708 43.9537 27.8118 43.7424 27.8118C43.5312 27.8118 43.3468 27.6708 43.2945 27.4692C42.8295 25.6787 41.3247 24.3958 39.5809 24.3958C37.5169 24.3958 35.7523 26.1977 35.743 28.522L35.7874 29.0473C35.8684 29.9085 36.3767 30.88 37.1636 31.8822C37.9436 32.8756 38.9587 33.851 39.9753 34.7145C40.99 35.5764 41.995 36.3176 42.7472 36.8437C43.123 37.1065 43.4349 37.3151 43.6522 37.4577C43.6844 37.4788 43.7145 37.4984 43.7424 37.5166Z" fill="#4A5568"/>
<path d="M43.9898 38.4447L43.9902 38.4444L43.9915 38.4436L43.9964 38.4405L44.0147 38.429C44.0307 38.4189 44.054 38.4042 44.0843 38.3848C44.1448 38.3462 44.2331 38.2894 44.3451 38.2159C44.5692 38.069 44.8888 37.8552 45.2731 37.5864C46.041 37.0494 47.0705 36.2903 48.1135 35.4044C49.1546 34.52 50.2202 33.4998 51.0528 32.4394C51.878 31.3885 52.514 30.2484 52.6185 29.1288C52.6198 29.115 52.6204 29.101 52.6204 29.0871C52.6204 29.094 52.6206 29.0919 52.6217 29.0766C52.6226 29.0652 52.6239 29.0466 52.6262 29.0188C52.6304 28.967 52.6361 28.9013 52.6418 28.8362C52.6475 28.7712 52.6533 28.7076 52.6576 28.6602L52.6648 28.5818C52.666 28.5681 52.6667 28.5543 52.6667 28.5405C52.6667 25.7726 50.5511 23.4848 47.904 23.4848C46.0964 23.4848 44.5565 24.5545 43.7424 26.0902C42.9284 24.5545 41.3885 23.4848 39.5809 23.4848C36.9338 23.4848 34.8182 25.7726 34.8182 28.5405C34.8182 28.5532 34.8187 28.5658 34.8198 28.5784L34.866 29.1249L34.8663 29.1288C34.9709 30.2484 35.6069 31.3885 36.432 32.4395C37.2646 33.4998 38.3303 34.52 39.3714 35.4044C40.4144 36.2903 41.4439 37.0494 42.2118 37.5864C42.5961 37.8552 42.9157 38.069 43.1398 38.2159C43.2518 38.2894 43.34 38.3462 43.4006 38.3848C43.4309 38.4042 43.4542 38.4189 43.4702 38.429L43.4885 38.4405L43.4934 38.4436L43.4951 38.4447M43.9898 38.4447C43.9896 38.4447 43.9895 38.4448 43.7424 38.0598M43.9898 38.4447C43.8388 38.5386 43.6461 38.5386 43.4951 38.4447M43.9898 38.4447L43.7424 38.0598M43.7424 38.0598C43.4954 38.4448 43.4953 38.4447 43.4951 38.4447M43.7424 38.0598L43.4951 38.4447M43.8326 37.4577C43.8005 37.4788 43.7704 37.4984 43.7424 37.5166C43.7145 37.4984 43.6844 37.4788 43.6522 37.4577C43.4349 37.3151 43.123 37.1065 42.7472 36.8437C41.995 36.3176 40.99 35.5764 39.9753 34.7145C38.9587 33.851 37.9436 32.8756 37.1636 31.8822C36.3767 30.88 35.8684 29.9085 35.7874 29.0473L35.743 28.522C35.7523 26.1977 37.5169 24.3958 39.5809 24.3958C41.3247 24.3958 42.8295 25.6787 43.2945 27.4692C43.3468 27.6708 43.5312 27.8118 43.7424 27.8118C43.9537 27.8118 44.1381 27.6708 44.1904 27.4692C44.6554 25.6787 46.1602 24.3958 47.904 24.3958C49.9675 24.3958 51.7317 26.1968 51.7418 28.5204L51.7365 28.5789C51.7321 28.6268 51.7263 28.6913 51.7205 28.7573L51.7202 28.7611C51.7119 28.855 51.7004 28.9852 51.6968 29.0539C51.6138 29.9135 51.1061 30.8825 50.3213 31.8822C49.5412 32.8756 48.5261 33.851 47.5095 34.7145C46.4949 35.5764 45.4899 36.3176 44.7377 36.8437C44.3619 37.1065 44.05 37.3151 43.8326 37.4577Z" stroke="#4A5568" stroke-miterlimit="10" stroke-linecap="round" stroke-linejoin="round"/>
<path d="M6.63636 7.51515C3.52349 7.51515 1 6.46369 1 5.16666C1 3.86963 3.52349 2.81818 6.63636 2.81818C8.07994 2.81818 9.39676 3.0443 10.3939 3.41617" stroke="#4A5568" stroke-width="2" stroke-linecap="round"/>
<path d="M6.63636 15.0303C3.52349 15.0303 1 13.9788 1 12.6818C1 11.3848 3.52349 10.3333 6.63636 10.3333C8.07994 10.3333 9.39676 10.5595 10.3939 10.9313" stroke="#4A5568" stroke-width="2" stroke-linecap="round"/>
<path d="M6.63636 22.5454C3.52349 22.5454 1 21.494 1 20.197C1 18.8999 3.52349 17.8485 6.63636 17.8485C8.07994 17.8485 9.39676 18.0746 10.3939 18.4465" stroke="#4A5568" stroke-width="2" stroke-linecap="round"/>
<path d="M6.63636 30.0606C3.52349 30.0606 1 29.0091 1 27.7121C1 26.4151 3.52349 25.3636 6.63636 25.3636C8.07994 25.3636 9.39676 25.5898 10.3939 25.9616" stroke="#4A5568" stroke-width="2" stroke-linecap="round"/>
<path d="M6.63636 37.5758C3.52349 37.5758 1 36.5243 1 35.2273C1 33.9302 3.52349 32.8788 6.63636 32.8788C8.07994 32.8788 9.39676 33.1049 10.3939 33.4768" stroke="#4A5568" stroke-width="2" stroke-linecap="round"/>
<path d="M6.63636 45.0909C3.52349 45.0909 1 44.0395 1 42.7424C1 41.4454 3.52349 40.3939 6.63636 40.3939C8.07994 40.3939 9.39676 40.6201 10.3939 40.9919" stroke="#4A5568" stroke-width="2" stroke-linecap="round"/>
<path d="M6.63636 52.6061C3.52349 52.6061 1 51.5546 1 50.2576C1 48.9605 3.52349 47.9091 6.63636 47.9091C8.07994 47.9091 9.39676 48.1352 10.3939 48.5071" stroke="#4A5568" stroke-width="2" stroke-linecap="round"/>
<path d="M6.63636 60.1212C3.52349 60.1212 1 59.0698 1 57.7727C1 56.4757 3.52349 55.4242 6.63636 55.4242C8.07994 55.4242 9.39676 55.6504 10.3939 56.0222" stroke="#4A5568" stroke-width="2" stroke-linecap="round"/>
<path d="M6.63636 67.6364C3.52349 67.6364 1 66.5849 1 65.2879C1 63.9908 3.52349 62.9394 6.63636 62.9394C8.07994 62.9394 9.39676 63.1655 10.3939 63.5374" stroke="#4A5568" stroke-width="2" stroke-linecap="round"/>
<path d="M6.63636 75.1515C3.52349 75.1515 1 74.1001 1 72.803C1 71.506 3.52349 70.4545 6.63636 70.4545C8.07994 70.4545 9.39676 70.6807 10.3939 71.0525" stroke="#4A5568" stroke-width="2" stroke-linecap="round"/>
<path d="M6.63636 82.6667C3.52349 82.6667 1 81.6152 1 80.3182C1 79.0211 3.52349 77.9697 6.63636 77.9697C8.07994 77.9697 9.39676 78.1958 10.3939 78.5677" stroke="#4A5568" stroke-width="2" stroke-linecap="round"/>
<path d="M6.63636 90.1818C3.52349 90.1818 1 89.1304 1 87.8333C1 86.5363 3.52349 85.4848 6.63636 85.4848C8.07994 85.4848 9.39676 85.711 10.3939 86.0828" stroke="#4A5568" stroke-width="2" stroke-linecap="round"/>
</svg>
