<svg width="106" height="83" viewBox="0 0 106 83" fill="none" xmlns="http://www.w3.org/2000/svg">
<path fill-rule="evenodd" clip-rule="evenodd" d="M53 60C53 49.5066 61.5066 41 72 41C82.4934 41 91 49.5066 91 60C91 70.4934 82.4934 79 72 79C61.5066 79 53 70.4934 53 60ZM54.2904 45.3235C58.5093 40.2385 64.8764 37 72 37C84.7025 37 95 47.2975 95 60C95 72.7025 84.7025 83 72 83C59.2975 83 49 72.7025 49 60C49 58.9832 49 59 49 57C49 26.1903 73.4442 1.08989 103.997 0.0345481C105.101 -0.00358322 106 0.895431 106 2V2V2C106 3.10457 105.103 3.99611 103.999 4.03708C79.6308 4.94165 59.4676 22.2975 54.2904 45.3235Z" fill="black"/>
<path fill-rule="evenodd" clip-rule="evenodd" d="M4 60C4 49.5066 12.5066 41 23 41C33.4934 41 42 49.5066 42 60C42 70.4934 33.4934 79 23 79C12.5066 79 4 70.4934 4 60ZM5.29044 45.3235C9.50927 40.2385 15.8764 37 23 37C35.7025 37 46 47.2975 46 60C46 72.7025 35.7025 83 23 83C10.2975 83 0 72.7025 0 60C0 58.9832 0 59 0 57C0 26.1903 24.4442 1.08989 54.9966 0.0345481C56.1005 -0.00358322 57 0.895431 57 2V2V2C57 3.10457 56.1026 3.99611 54.9988 4.03708C30.6308 4.94165 10.4676 22.2975 5.29044 45.3235Z" fill="black"/>
</svg>
